<?xml version="1.0" encoding="utf-8"?>
<!-- Generator: Adobe Illustrator 15.0.0, SVG Export Plug-In . SVG Version: 6.00 Build 0)  -->
<!DOCTYPE svg PUBLIC "-//W3C//DTD SVG 1.1//EN" "http://www.w3.org/Graphics/SVG/1.1/DTD/svg11.dtd">
<svg version="1.1" id="レイヤー_1" xmlns="http://www.w3.org/2000/svg" xmlns:xlink="http://www.w3.org/1999/xlink" x="0px"
	 y="0px" width="500px" height="57px" viewBox="-62.6 51.2 500 57" enable-background="new -62.6 51.2 500 57" xml:space="preserve"
	>
<g>
	<g>
		<g>
			<g>
				<path fill="#3E3939" d="M1,65.6h7c2.1,0,3.9,0.2,5.4,0.5c1.4,0.3,2.6,0.8,3.6,1.6c1.6,1.2,2.7,2.7,3.4,4.6c0.7,1.8,1,4.4,1,7.8
					c0,3.1-0.4,5.6-1.1,7.6c-0.7,1.9-1.9,3.3-3.6,4.3c-2.1,1.2-5.8,1.8-11.1,1.8H1V65.6z M6.7,90.6c3.5,0,5.8-0.7,7-2.1
					c1.2-1.4,1.8-4.1,1.8-8.2c0-4.4-0.6-7.4-1.7-9c-1.2-1.6-3.3-2.5-6.3-2.5H6.7V90.6z"/>
				<path fill="#3E3939" d="M34.9,65.6h5.6v20c0,2,0.3,3.4,0.8,4.1c0.6,0.7,1.7,1,3.3,1c1.7,0,2.8-0.3,3.3-0.9
					c0.5-0.6,0.8-1.8,0.8-3.6V65.6h5.6v20.5c0,3.1-0.7,5.2-2.1,6.2c-1.7,1.2-4.3,1.8-7.7,1.8c-3.8,0-6.5-0.8-8-2.4
					c-1.1-1.1-1.6-3.2-1.6-6.3V65.6z"/>
				<path fill="#3E3939" d="M74.9,65.6h4.4l9.1,28.3h-5.7l-1.6-5.5h-8.4l-1.6,5.5h-5.5L74.9,65.6z M80.4,85.4l-1.3-4.5
					c-0.8-3.1-1.5-6.3-2.1-9.8c-0.3,1.7-0.6,3.4-1,5.2c-0.4,1.7-0.9,3.6-1.4,5.5l-1,3.6H80.4z"/>
				<path fill="#3E3939" d="M100.6,65.6h5.7v25h9.3v3.2h-15V65.6z"/>
				<path fill="#3E3939" d="M163,66.2v3.7c-1.7-0.8-3.3-1.2-4.7-1.2c-1.5,0-2.7,0.4-3.7,1.1c-1,0.7-1.4,1.6-1.4,2.7
					c0,1,0.3,1.8,1,2.5c0.3,0.4,0.9,0.9,1.7,1.5c0.8,0.6,1.8,1.3,3.1,2.2c2.3,1.6,3.9,2.9,4.7,4.1c0.8,1.1,1.3,2.5,1.3,4.1
					c0,2.2-0.9,4-2.8,5.4c-1.8,1.4-4.2,2.1-7.1,2.1c-2.4,0-4.5-0.4-6.2-1.3v-3.8c2,1,3.9,1.5,5.5,1.5c1.6,0,2.8-0.3,3.7-1
					c0.9-0.7,1.3-1.6,1.3-2.8c0-1-0.3-1.9-1-2.8c-0.3-0.4-0.8-0.8-1.5-1.3c-0.6-0.5-1.4-1.1-2.3-1.7c-1.4-1-2.6-1.8-3.6-2.5
					c-1-0.7-1.7-1.4-2.1-1.9c-0.9-1.1-1.3-2.4-1.3-4.1c0-2.2,0.9-4,2.6-5.3c1.7-1.3,4.1-2,7-2C159.2,65.3,161.1,65.6,163,66.2z"/>
				<path fill="#3E3939" d="M177.8,65.6H193v3.2h-9.5v9h8.4V81h-8.4v9.6h9.5v3.2h-15.2V65.6z"/>
				<path fill="#3E3939" d="M213.8,65.6h4.4l9.1,28.3h-5.7l-1.6-5.5h-8.4l-1.6,5.5h-5.5L213.8,65.6z M219.2,85.4l-1.3-4.5
					c-0.8-3.1-1.5-6.3-2.1-9.8c-0.3,1.7-0.6,3.4-1,5.2c-0.4,1.7-0.9,3.6-1.4,5.5l-1,3.6H219.2z"/>
				<path fill="#3E3939" d="M239.5,65.6h7.5c3.1,0,5.4,0.5,6.9,1.5c1.9,1.3,2.9,3.2,2.9,5.9c0,2-0.5,3.7-1.5,4.9
					c-1,1.2-2.5,2-4.4,2.3l7.8,13.7h-5.8l-7.8-13.8v13.8h-5.7V65.6z M245.2,78.2c2.2,0,3.8-0.3,4.7-1c0.9-0.7,1.4-1.8,1.4-3.5
					c0-0.9-0.1-1.6-0.3-2.3c-0.2-0.6-0.5-1.1-0.9-1.5c-0.4-0.4-0.9-0.7-1.6-0.9c-0.6-0.2-1.4-0.3-2.3-0.3h-1V78.2z"/>
				<path fill="#3E3939" d="M287.2,66.1v3.4c-1.5-0.5-2.7-0.7-3.7-0.7c-1.4,0-2.5,0.2-3.5,0.7c-1,0.4-1.8,1.1-2.4,2.1
					c-0.6,0.9-1.1,2.1-1.4,3.5c-0.3,1.4-0.5,3.1-0.5,5c0,7,2.7,10.5,8,10.5c0.9,0,2.1-0.2,3.4-0.6v3.5c-1.4,0.5-2.9,0.8-4.6,0.8
					c-8.6,0-12.9-4.7-12.9-14c0-5.1,1-8.8,3.1-11.3c2.1-2.5,5.3-3.7,9.6-3.7C284,65.3,285.6,65.5,287.2,66.1z"/>
				<path fill="#3E3939" d="M300,65.6h5.7v11.1h8.4V65.6h5.7v28.3h-5.7v-14h-8.4v14H300V65.6z"/>
				<path fill="#3E3939" d="M361,74.8h-5.6l-0.1-1.1c0-3.1,0.7-5.3,2.1-6.5c1.4-1.3,3.8-1.9,7.1-1.9c6.2,0,9.4,2.3,9.4,6.9
					c0,3.1-2.3,7.6-7,13.5l-3.4,4.2c0,0-0.1,0.1-0.2,0.2c-0.1,0.1-0.2,0.3-0.4,0.5h10.5v3.3h-18.6c0.3-0.5,1-1.4,1.9-2.8
					c1-1.4,2.3-3.2,4-5.6c1.4-2,2.7-3.8,3.6-5.2c1-1.4,1.7-2.6,2.2-3.5c1-1.8,1.5-3.4,1.5-4.7c0-2.3-1.2-3.5-3.7-3.5
					c-2.3,0-3.5,1.5-3.5,4.4l0,1.6L361,74.8z"/>
				<path fill="#3E3939" d="M405.3,80c0,5.1-0.7,8.7-2.2,11c-1.4,2.2-3.9,3.3-7.4,3.3c-3.5,0-5.9-1.1-7.4-3.3
					c-1.4-2.1-2.2-5.9-2.2-11.2c0-5.3,0.7-9.1,2.2-11.2c1.4-2.2,3.9-3.3,7.4-3.3c3.2,0,5.6,1,7.1,2.9
					C404.4,70.2,405.3,74.2,405.3,80z M399.4,80c0-4.3-0.3-7.2-0.8-8.9c-0.5-1.6-1.5-2.4-3-2.4s-2.4,0.8-3,2.4
					c-0.5,1.6-0.8,4.5-0.8,8.7c0,4.2,0.3,7.1,0.8,8.7c0.6,1.6,1.6,2.4,3,2.4c1.4,0,2.4-0.8,3-2.4C399.2,87,399.4,84.2,399.4,80z"/>
				<path fill="#3E3939" d="M437,80c0,5.1-0.7,8.7-2.2,11c-1.4,2.2-3.9,3.3-7.4,3.3c-3.5,0-5.9-1.1-7.4-3.3
					c-1.4-2.1-2.2-5.9-2.2-11.2c0-5.3,0.7-9.1,2.2-11.2c1.4-2.2,3.9-3.3,7.4-3.3c3.2,0,5.6,1,7.1,2.9C436.2,70.2,437,74.2,437,80z
					 M431.2,80c0-4.3-0.3-7.2-0.8-8.9c-0.5-1.6-1.5-2.4-3-2.4c-1.4,0-2.4,0.8-3,2.4c-0.5,1.6-0.8,4.5-0.8,8.7c0,4.2,0.3,7.1,0.8,8.7
					c0.6,1.6,1.6,2.4,3,2.4c1.4,0,2.4-0.8,3-2.4C430.9,87,431.2,84.2,431.2,80z"/>
			</g>
		</g>
		<g>
			<path fill="#3E3939" d="M-39.3,95.9c-2.7,2.7-7.1,2.7-9.8,0l-11.1-11.1c-2.7,2.7-2.7,7.1,0,9.8l11.1,11.1c2.7,2.7,7.1,2.7,9.8,0
				l11.5-11.5c2.7-2.7,2.7-7.1,0-9.8L-39.3,95.9z"/>
			<path fill="#3E3939" d="M-43.6,68.8l-11.5,11.5l6.2,6.2c2.7,2.7,7.1,2.7,9.8,0l1.7-1.7c2.2-2.2,2.6-5.6,1.2-8.2
				c-0.3-0.6-0.7-1.1-1.2-1.6L-43.6,68.8z"/>
			<path fill="#3E3939" d="M-60.2,75l11.4-11.5c2-2,4.9-4.9,4.9-4.9l16,16c2.7-2.7,2.7-7.1,0-9.8l-11.1-11.1c-2.7-2.7-7.1-2.7-9.8,0
				l-11.4,11.5C-62.9,67.9-62.9,72.3-60.2,75L-60.2,75z"/>
		</g>
	</g>
</g>
</svg>
